%YAML 1.1
%TAG !u! tag:unity3d.com,2011:
--- !u!114 &11400000
MonoBehaviour:
  m_ObjectHideFlags: 0
  m_CorrespondingSourceObject: {fileID: 0}
  m_PrefabInstance: {fileID: 0}
  m_PrefabAsset: {fileID: 0}
  m_GameObject: {fileID: 0}
  m_Enabled: 1
  m_EditorHideFlags: 0
  m_Script: {fileID: 11500000, guid: 4a68c68d1de00574da847aad0dabbf33, type: 3}
  m_Name: RobeId
  m_EditorClassIdentifier: 
  countValue: 5
  reuseDeletedValues: 1
  elements:
  - value: 1
    name: Robe1
  - value: 2
    name: Robe2
  - value: 3
    name: Robe3
  - value: 4
    name: Robe4
