%YAML 1.1
%TAG !u! tag:unity3d.com,2011:
--- !u!114 &11400000
MonoBehaviour:
  m_ObjectHideFlags: 0
  m_CorrespondingSourceObject: {fileID: 0}
  m_PrefabInstance: {fileID: 0}
  m_PrefabAsset: {fileID: 0}
  m_GameObject: {fileID: 0}
  m_Enabled: 1
  m_EditorHideFlags: 0
  m_Script: {fileID: 11500000, guid: 3377a49cb6b5f2c4f80a324bee023c73, type: 3}
  m_Name: SkinId
  m_EditorClassIdentifier: 
  countValue: 5
  reuseDeletedValues: 1
  elements:
  - value: 1
    name: Skin1
  - value: 2
    name: Skin2
  - value: 3
    name: Skin3
  - value: 4
    name: Skin4
