%YAML 1.1
%TAG !u! tag:unity3d.com,2011:
--- !u!114 &11400000
MonoBehaviour:
  m_ObjectHideFlags: 0
  m_CorrespondingSourceObject: {fileID: 0}
  m_PrefabInstance: {fileID: 0}
  m_PrefabAsset: {fileID: 0}
  m_GameObject: {fileID: 0}
  m_Enabled: 1
  m_EditorHideFlags: 0
  m_Script: {fileID: 11500000, guid: d3c4e9ab1c1339e44b3c27ebcb55e083, type: 3}
  m_Name: SkinConfig
  m_EditorClassIdentifier: 
  SkinsData:
  - sprite: {fileID: 21300000, guid: 95dd9b46941c25b46bb2a2ff7c1b56cf, type: 3}
    price: 20
    freeStuff: 1
    id:
      value: 1
  - sprite: {fileID: 21300000, guid: 5788d4a5f7e28e94e98af8d7cec2fa77, type: 3}
    price: 40
    freeStuff: 0
    id:
      value: 2
  - sprite: {fileID: 21300000, guid: 3514dfb99b8cfde43bd70e646f5ad4ee, type: 3}
    price: 100
    freeStuff: 0
    id:
      value: 3
  - sprite: {fileID: 21300000, guid: c8432f98303fccf4b900651d1664987d, type: 3}
    price: 160
    freeStuff: 0
    id:
      value: 4
